{
    "version": "https://jsonfeed.org/version/1",
    "title": "Martines wollies _van sschapewol tot afgewerkt product",
    "description": "",
    "home_page_url": "https://wollie-webby1-cd4a6f58c8748501ea62521e8f5f1a45c7571adb839c3ad3d.gitlab.io",
    "feed_url": "https://wollie-webby1-cd4a6f58c8748501ea62521e8f5f1a45c7571adb839c3ad3d.gitlab.io/feed.json",
    "user_comment": "",
    "icon": "https://wollie-webby1-cd4a6f58c8748501ea62521e8f5f1a45c7571adb839c3ad3d.gitlab.io/media/website/20200825_161451.jpg",
    "author": {
        "name": "David"
    },
    "items": [
        {
            "id": "https://wollie-webby1-cd4a6f58c8748501ea62521e8f5f1a45c7571adb839c3ad3d.gitlab.io/lalalalalalalalalalalalalal.html",
            "url": "https://wollie-webby1-cd4a6f58c8748501ea62521e8f5f1a45c7571adb839c3ad3d.gitlab.io/lalalalalalalalalalalalalal.html",
            "title": "lalalalalalalalalalalalalal",
            "summary": "jajajajajajajajaja momomomomomomomo kokokokokokokokko",
            "content_html": "<p>jajajajajajajajaja</p>\n<p> </p>\n<p> </p>\n<p> </p>\n<p>momomomomomomomo</p>\n<p> </p>\n<p> </p>\n<p> </p>\n<p> </p>\n<p>kokokokokokokokko</p>\n<figure class=\"post__image\"><img loading=\"lazy\"  src=\"https://wollie-webby1-cd4a6f58c8748501ea62521e8f5f1a45c7571adb839c3ad3d.gitlab.io/media/posts/3/lammetje.jpg\" alt=\"lammeke\" width=\"153\" height=\"315\" sizes=\"(max-width: 1024px) 100vw, 1024px\" srcset=\"https://wollie-webby1-cd4a6f58c8748501ea62521e8f5f1a45c7571adb839c3ad3d.gitlab.io/media/posts/3/responsive/lammetje-xs.jpg 300w ,https://wollie-webby1-cd4a6f58c8748501ea62521e8f5f1a45c7571adb839c3ad3d.gitlab.io/media/posts/3/responsive/lammetje-sm.jpg 480w ,https://wollie-webby1-cd4a6f58c8748501ea62521e8f5f1a45c7571adb839c3ad3d.gitlab.io/media/posts/3/responsive/lammetje-md.jpg 768w ,https://wollie-webby1-cd4a6f58c8748501ea62521e8f5f1a45c7571adb839c3ad3d.gitlab.io/media/posts/3/responsive/lammetje-lg.jpg 1024w\"><figcaption>Caption</figcaption></figure>\n<p> </p>",
            "author": {
                "name": "David"
            },
            "tags": [
            ],
            "date_published": "2024-04-01T16:30:16+02:00",
            "date_modified": "2024-04-01T16:30:16+02:00"
        },
        {
            "id": "https://wollie-webby1-cd4a6f58c8748501ea62521e8f5f1a45c7571adb839c3ad3d.gitlab.io/mahashivarathri-2024.html",
            "url": "https://wollie-webby1-cd4a6f58c8748501ea62521e8f5f1a45c7571adb839c3ad3d.gitlab.io/mahashivarathri-2024.html",
            "title": "Mahashivarathri 2024",
            "summary": "Nacht van Shiva is dit jaar van 8 op 9 Maart. Dit&hellip;",
            "content_html": "<p>Nacht van Shiva is dit jaar van 8 op 9 Maart. Dit feest wordt wereldwijd gevierd bij Nieuwe Maan.🌑</p>\n<p> </p>",
            "author": {
                "name": "David"
            },
            "tags": [
            ],
            "date_published": "2024-03-08T13:31:39+01:00",
            "date_modified": "2024-03-08T13:31:39+01:00"
        },
        {
            "id": "https://wollie-webby1-cd4a6f58c8748501ea62521e8f5f1a45c7571adb839c3ad3d.gitlab.io/wat-is-een-wollie.html",
            "url": "https://wollie-webby1-cd4a6f58c8748501ea62521e8f5f1a45c7571adb839c3ad3d.gitlab.io/wat-is-een-wollie.html",
            "title": "Wat is een Wollie?",
            "summary": "Een wollie is een donsdeken voor je kookpot😀 woillue wpsoidjfhmqljfdmlqj fqs dfsqdfsqfqfsqfqfqfsqf&hellip;",
            "content_html": "<p> </p>\n<p>Een wollie is een donsdeken voor je kookpot😀</p>\n<p> </p>\n<p> </p>\n<p>woillue wpsoidjfhmqljfdmlqj</p>\n<p>fqs</p>\n<p>dfsqdfsqfqfsqfqfqfsqf</p>\n<p>sqdfsdqfsqdf</p>\n<p> </p>\n<div class=\"gallery-wrapper\"><div class=\"gallery\"  data-is-empty=\"false\" data-translation=\"Add images\" data-columns=\"3\">\n<figure class=\"gallery__item\"><a href=\"https://wollie-webby1-cd4a6f58c8748501ea62521e8f5f1a45c7571adb839c3ad3d.gitlab.io/media/posts/1/gallery/20180312_171437.jpg\" data-size=\"4608x3456\"><img loading=\"lazy\" src=\"https://wollie-webby1-cd4a6f58c8748501ea62521e8f5f1a45c7571adb839c3ad3d.gitlab.io/media/posts/1/gallery/20180312_171437-thumbnail.jpg\" alt=\"\" width=\"720\" height=\"540\"></a></figure>\n<figure class=\"gallery__item\"><a href=\"https://wollie-webby1-cd4a6f58c8748501ea62521e8f5f1a45c7571adb839c3ad3d.gitlab.io/media/posts/1/gallery/20180312_183536.jpg\" data-size=\"4608x3456\"><img loading=\"lazy\" src=\"https://wollie-webby1-cd4a6f58c8748501ea62521e8f5f1a45c7571adb839c3ad3d.gitlab.io/media/posts/1/gallery/20180312_183536-thumbnail.jpg\" alt=\"\" width=\"720\" height=\"540\"></a></figure>\n<figure class=\"gallery__item\"><a href=\"https://wollie-webby1-cd4a6f58c8748501ea62521e8f5f1a45c7571adb839c3ad3d.gitlab.io/media/posts/1/gallery/20180312_183544.jpg\" data-size=\"4608x3456\"><img loading=\"lazy\" src=\"https://wollie-webby1-cd4a6f58c8748501ea62521e8f5f1a45c7571adb839c3ad3d.gitlab.io/media/posts/1/gallery/20180312_183544-thumbnail.jpg\" alt=\"\" width=\"720\" height=\"540\"></a></figure>\n<figure class=\"gallery__item\"><a href=\"https://wollie-webby1-cd4a6f58c8748501ea62521e8f5f1a45c7571adb839c3ad3d.gitlab.io/media/posts/1/gallery/20180312_213550.jpg\" data-size=\"4608x3456\"><img loading=\"lazy\" src=\"https://wollie-webby1-cd4a6f58c8748501ea62521e8f5f1a45c7571adb839c3ad3d.gitlab.io/media/posts/1/gallery/20180312_213550-thumbnail.jpg\" alt=\"\" width=\"720\" height=\"540\"></a></figure>\n<figure class=\"gallery__item\"><a href=\"https://wollie-webby1-cd4a6f58c8748501ea62521e8f5f1a45c7571adb839c3ad3d.gitlab.io/media/posts/1/gallery/20180317_135905_001.jpg\" data-size=\"4608x3456\"><img loading=\"lazy\" src=\"https://wollie-webby1-cd4a6f58c8748501ea62521e8f5f1a45c7571adb839c3ad3d.gitlab.io/media/posts/1/gallery/20180317_135905_001-thumbnail.jpg\" alt=\"\" width=\"720\" height=\"540\"></a></figure>\n</div></div>",
            "image": "https://wollie-webby1-cd4a6f58c8748501ea62521e8f5f1a45c7571adb839c3ad3d.gitlab.io/media/posts/1/20180318_122152.jpg",
            "author": {
                "name": "David"
            },
            "tags": [
                   "Wollie"
            ],
            "date_published": "2024-03-05T20:54:58+01:00",
            "date_modified": "2024-03-08T13:45:51+01:00"
        }
    ]
}
